00_all
…
# Show mismatches only

status_mismatches <- status_comparison %>%
  filter(!match)

status_comparison

# A tibble: 1,939 × 5
   project patient_number given_status calculated_status match
     <dbl>          <dbl> <chr>        <chr>             <lgl>
 1     155           3001 Positive     Positive          TRUE 
 2     155           3002 Positive     Positive          TRUE 
 3     155           3003 Positive     Positive          TRUE 
 4     155           3006 Positive     Positive          TRUE 
 5     155           3010 Positive     Positive          TRUE 
 6     155           3014 Positive     Positive          TRUE 
 7     155           3018 Positive     Positive          TRUE 
 8     155           3020 Negative     Negative          TRUE 
 9     155           3021 Positive     Positive          TRUE 
10     155           3022 Negative     Negative          TRUE 
# ℹ 1,929 more rows
…
